%YAML 1.1
%TAG !u! tag:unity3d.com,2011:
--- !u!241 &24100000
AudioMixerController:
  m_ObjectHideFlags: 0
  m_PrefabParentObject: {fileID: 0}
  m_PrefabInternal: {fileID: 0}
  m_Name: MainMixer
  m_OutputGroup: {fileID: 0}
  m_MasterGroup: {fileID: 24300002}
  m_Snapshots:
  - {fileID: 24500006}
  m_StartSnapshot: {fileID: 24500006}
  m_SuspendThreshold: -80
  m_EnableSuspend: 1
  m_UpdateMode: 0
  m_ExposedParameters:
  - guid: 9e5067575d490554a91b84f7f510dd62
    name: volume
  m_AudioMixerGroupViews:
  - guids:
    - ab79adb3b21eb58438977c5a7282903b
    - fded412bb26293144a8bce7b8ce96e6b
    name: View
  m_CurrentViewIndex: 0
  m_TargetSnapshot: {fileID: 24500006}
--- !u!243 &24300002
AudioMixerGroupController:
  m_ObjectHideFlags: 0
  m_PrefabParentObject: {fileID: 0}
  m_PrefabInternal: {fileID: 0}
  m_Name: Master
  m_AudioMixer: {fileID: 24100000}
  m_GroupID: ab79adb3b21eb58438977c5a7282903b
  m_Children:
  - {fileID: 243623641228697518}
  m_Volume: 9e5067575d490554a91b84f7f510dd62
  m_Pitch: 2c870bcacb23d904b9667a97601ab769
  m_Effects:
  - {fileID: 24400004}
  m_UserColorIndex: 0
  m_Mute: 0
  m_Solo: 0
  m_BypassEffects: 0
--- !u!244 &24400004
AudioMixerEffectController:
  m_ObjectHideFlags: 3
  m_PrefabParentObject: {fileID: 0}
  m_PrefabInternal: {fileID: 0}
  m_Name: 
  m_EffectID: d2e1c1da4877baf4a9fc4407ef5de585
  m_EffectName: Attenuation
  m_MixLevel: 8eba267e16a278f4a9ddb1af5766483a
  m_Parameters: []
  m_SendTarget: {fileID: 0}
  m_EnableWetMix: 0
  m_Bypass: 0
--- !u!245 &24500006
AudioMixerSnapshotController:
  m_ObjectHideFlags: 0
  m_PrefabParentObject: {fileID: 0}
  m_PrefabInternal: {fileID: 0}
  m_Name: Snapshot
  m_AudioMixer: {fileID: 24100000}
  m_SnapshotID: d0249b5807c91e942be0d7902ebd6e71
  m_FloatValues:
    ed0aeb90fe698094b8e3a3a87e91d833: -80
    9e5067575d490554a91b84f7f510dd62: -80
  m_TransitionOverrides: {}
--- !u!243 &243623641228697518
AudioMixerGroupController:
  m_ObjectHideFlags: 0
  m_PrefabParentObject: {fileID: 0}
  m_PrefabInternal: {fileID: 0}
  m_Name: MenuMusic
  m_AudioMixer: {fileID: 24100000}
  m_GroupID: fded412bb26293144a8bce7b8ce96e6b
  m_Children: []
  m_Volume: ed0aeb90fe698094b8e3a3a87e91d833
  m_Pitch: 9923a78881474954ea629f59dc452a1d
  m_Effects:
  - {fileID: 244213729924500172}
  m_UserColorIndex: 0
  m_Mute: 0
  m_Solo: 0
  m_BypassEffects: 0
--- !u!244 &244213729924500172
AudioMixerEffectController:
  m_ObjectHideFlags: 3
  m_PrefabParentObject: {fileID: 0}
  m_PrefabInternal: {fileID: 0}
  m_Name: 
  m_EffectID: 3d2ecffffcabbef4198818cc88cc7e13
  m_EffectName: Attenuation
  m_MixLevel: e94a11e274f8a8c4a8c16d82e8f6cf91
  m_Parameters: []
  m_SendTarget: {fileID: 0}
  m_EnableWetMix: 0
  m_Bypass: 0
